cTWAS_analysis_for_asthma
…
Summing up PIPs for m6A peaks located in the same
gene

Top 10 m6A PIPs by genes

# A tibble: 819 × 2
   genename total_susie_pip
   <chr>              <dbl>
 1 C17orf62           0.963
 2 SLC25A11           0.958
 3 UBE2G2             0.918
 4 THEMIS2            0.918
 5 TRAF2              0.898
 6 TAOK1              0.870
 7 PHF11              0.861
 8 AKAP8              0.849
 9 ZSCAN25            0.829
10 GSDMD              0.818
# ℹ 809 more rows
…
