cTWAS_analysis_for_eosinoph_counts
…
Summing up PIPs for m6A peaks located in the same
gene

Top 10 m6A PIPs by genes

# A tibble: 819 × 2
   genename total_susie_pip
   <chr>              <dbl>
 1 ZER1               0.978
 2 SH2D3C             0.975
 3 PTK2B              0.959
 4 SLC43A3            0.922
 5 MEPCE              0.856
 6 RRP1B              0.751
 7 WAC-AS1            0.619
 8 TRMT13             0.601
 9 SRPK1              0.590
10 FBXO34             0.578
# ℹ 809 more rows
…
