cTWAS_analysis_for_IBD
…
Summing up PIPs for m6A peaks located in the same
gene

Top m6A PIPs by genes

# A tibble: 760 × 2
   genename  total_susie_pip
   <chr>               <dbl>
 1 IP6K2               0.804
 2 ICOSLG              0.615
 3 DHX38               0.380
 4 CYTH1               0.367
 5 MMP24-AS1           0.275
 6 GSDMD               0.250
 7 RGS10               0.247
 8 AKAP8               0.246
 9 RNGTT               0.227
10 TRIM8               0.217
# ℹ 750 more rows
…
Summing up PIPs for m6A peaks located in the same
gene

Top 10 m6A PIPs by genes

# A tibble: 814 × 2
   genename total_susie_pip
   <chr>              <dbl>
 1 DHX38              0.938
 2 IP6K2              0.908
 3 C21orf33           0.794
 4 AKAP8              0.702
 5 KIF21B             0.666
 6 CYTH1              0.569
 7 CRTC3              0.415
 8 LHFPL2             0.382
 9 CENPF              0.363
10 KIAA1147           0.329
# ℹ 804 more rows
…
