cTWAS_analysis_for_lupus
…
Summing up PIPs for m6A peaks located in the same
gene

Top 10 m6A PIPs by genes

# A tibble: 809 × 2
   genename total_susie_pip
   <chr>              <dbl>
 1 MIR210HG          0.906 
 2 IRF5              0.169 
 3 SH2D3C            0.131 
 4 ICOSLG            0.101 
 5 IRF3              0.0741
 6 SCIMP             0.0708
 7 PSMB1             0.0682
 8 MKRN2             0.0644
 9 SNRNP25           0.0633
10 DENND3            0.0600
# ℹ 799 more rows
…
