cTWAS_analysis_for_white_blood_counts
…
Summing up PIPs for m6A peaks located in the same
gene

Top 10 m6A PIPs by genes

# A tibble: 800 × 2
   hgnc_symbol total_susie_pip
   <chr>                 <dbl>
 1 SLC9A3R1              0.954
 2 ZKSCAN5               0.786
 3 THEMIS2               0.782
 4 TRAM2                 0.709
 5 BANF1                 0.579
 6 TRIT1                 0.528
 7 S1PR2                 0.522
 8 WAC-AS1               0.513
 9 SQSTM1                0.493
10 CD320                 0.379
# ℹ 790 more rows
…
